{
	"info": {
		"_postman_id": "d6f2e61a-a6e3-4639-b26e-917e4d86e4bd",
		"name": "Big Game Survey",
		"schema": "https://schema.getpostman.com/json/collection/v2.0.0/collection.json",
		"_exporter_id": "13843413"
	},
	"item": [
		{
			"name": "Record",
			"item": [
				{
					"name": "Get records",
					"request": {
						"method": "GET",
						"header": [],
						"url": {
							"raw": "http://localhost:8080/api/v1/record?min=2020-01-01T00:00:00Z&max=2020-07-31T00:00:00Z&page=0&linesPerPage=20&orderBy=moment&direction=DESC",
							"protocol": "http",
							"host": [
								"localhost"
							],
							"port": "8080",
							"path": [
								"api",
								"v1",
								"record"
							],
							"query": [
								{
									"key": "min",
									"value": "2020-01-01T00:00:00Z"
								},
								{
									"key": "max",
									"value": "2020-07-31T00:00:00Z"
								},
								{
									"key": "page",
									"value": "0"
								},
								{
									"key": "linesPerPage",
									"value": "20"
								},
								{
									"key": "orderBy",
									"value": "moment"
								},
								{
									"key": "direction",
									"value": "DESC"
								}
							]
						}
					},
					"response": []
				}
			]
		},
		{
			"name": "Game",
			"item": [
				{
					"name": "Find games",
					"request": {
						"method": "GET",
						"header": [],
						"url": "http://localhost:8080/api/v1/game"
					},
					"response": []
				}
			]
		}
	]
}